%YAML 1.1
%TAG !u! tag:unity3d.com,2011:
--- !u!1045 &1
EditorBuildSettings:
  m_ObjectHideFlags: 0
  serializedVersion: 2
  m_Scenes:
  - enabled: 1
    path: Assets/Scenes/Main/DemoIkScene.unity
    guid: 3d98c886d20b7c045ae7fc6bb609f0e5
  m_configObjects: {}
