%YAML 1.1
%TAG !u! tag:unity3d.com,2011:
--- !u!114 &11400000
MonoBehaviour:
  m_ObjectHideFlags: 0
  m_CorrespondingSourceObject: {fileID: 0}
  m_PrefabInstance: {fileID: 0}
  m_PrefabAsset: {fileID: 0}
  m_GameObject: {fileID: 0}
  m_Enabled: 1
  m_EditorHideFlags: 0
  m_Script: {fileID: 11500000, guid: 565fb3296424fb7459ba3fded32dfd93, type: 3}
  m_Name: PhysicData
  m_EditorClassIdentifier: 
  groundLayerMask:
    serializedVersion: 2
    m_Bits: 512
  collisionLayerMask:
    serializedVersion: 2
    m_Bits: 1024
